<svg width="132" height="132" viewBox="0 0 132 132" fill="none" xmlns="http://www.w3.org/2000/svg">
<circle cx="66" cy="66" r="59.5" fill="#EAFBE5"/>
<path d="M13.6147 70.4336C15.4157 97.7967 38.181 119.434 65.9999 119.434C91.3989 119.434 112.585 101.397 117.45 77.4336" stroke="#505050" stroke-width="4.25" stroke-linecap="round"/>
<path d="M13.515 65.5499C13.9229 64.8361 14.9521 64.8361 15.36 65.5499L21.7791 76.7834C22.1839 77.4917 21.6724 78.373 20.8566 78.373H8.01838C7.20257 78.373 6.69111 77.4917 7.09587 76.7834L13.515 65.5499Z" fill="#505050"/>
<path d="M118.385 61.375C116.584 34.0119 93.819 12.375 66.0001 12.375C40.6011 12.375 19.4146 30.4115 14.5503 54.375" stroke="#505050" stroke-width="4.25" stroke-linecap="round"/>
<path d="M116.64 66.4462C117.048 67.16 118.077 67.16 118.485 66.4462L124.904 55.2127C125.309 54.5044 124.797 53.623 123.982 53.623H111.143C110.328 53.623 109.816 54.5044 110.221 55.2127L116.64 66.4462Z" fill="#505050"/>
<circle cx="66.0001" cy="65.998" r="38.0625" fill="white" stroke="#4F9C3A" stroke-width="6.375"/>
<circle cx="66.0001" cy="66" r="17.4375" fill="#76BB63" stroke="#505050" stroke-width="6.375"/>
<path d="M98.2263 14.5319C98.7516 13.9585 99.6947 14.1252 99.9917 14.8439L103.997 24.5395C104.118 24.8305 104.361 25.0532 104.661 25.1475L114.669 28.291C115.411 28.5241 115.66 29.4491 115.135 30.0225L100.424 46.0794C100.145 46.3836 99.7156 46.499 99.322 46.3754L88.3657 42.9341C88.0654 42.8398 87.8223 42.6171 87.7021 42.3262L83.317 31.7123C83.1595 31.331 83.2369 30.893 83.5156 30.5889L98.2263 14.5319Z" fill="#505050"/>
<path d="M87.3054 38.502L92.1364 42.9278L68.6641 68.5482C67.4419 69.8822 65.3697 69.9729 64.0357 68.7507C62.7017 67.5286 62.611 65.4564 63.8332 64.1223L87.3054 38.502Z" fill="#505050"/>
</svg>
