<svg width="56" height="56" viewBox="0 0 56 56" fill="none" xmlns="http://www.w3.org/2000/svg">
<rect width="56" height="56" rx="16" fill="#D1EDC9"/>
<path d="M37.5345 38.6667H18.4668C17.8653 38.6667 17.3999 38.1395 17.4745 37.5427L17.7578 35.276C17.8204 34.7756 18.2458 34.4 18.7501 34.4H37.2512C37.7555 34.4 38.1809 34.7756 38.2435 35.276L38.5268 37.5427C38.6014 38.1395 38.136 38.6667 37.5345 38.6667Z" stroke="#2F2724" stroke-width="1.5"/>
<path d="M17.9626 21.3486L27.6293 17.4819C27.8677 17.3866 28.1336 17.3866 28.372 17.4819L38.0387 21.3486C38.4184 21.5005 38.6673 21.8682 38.6673 22.2771V25.9334C38.6673 26.4857 38.2196 26.9334 37.6673 26.9334H18.334C17.7817 26.9334 17.334 26.4857 17.334 25.9334V22.2771C17.334 21.8682 17.5829 21.5005 17.9626 21.3486Z" stroke="#2F2724" stroke-width="1.5"/>
<path d="M20 26.6667V34.1334" stroke="#2F2724" stroke-width="1.5"/>
<path d="M25.334 26.6667V34.1334" stroke="#2F2724" stroke-width="1.5"/>
<path d="M30.668 26.6667V34.1334" stroke="#2F2724" stroke-width="1.5"/>
<path d="M36 26.6667V34.1334" stroke="#2F2724" stroke-width="1.5"/>
<circle cx="28.0013" cy="22.6667" r="1.33333" fill="#2F2724"/>
</svg>
