<svg xmlns="http://www.w3.org/2000/svg" width="24" height="24" fill="none" viewBox="0 0 24 24">
    <path fill="#231F20" fill-rule="evenodd" d="M12 15.5c-.256 0-.512-.098-.707-.293l-4-4c-.39-.391-.39-1.023 0-1.414.391-.391 1.023-.391 1.414 0l3.305 3.305 3.293-3.18c.4-.383 1.03-.372 1.414.025.384.397.373 1.031-.024 1.414l-4 3.862c-.195.188-.445.281-.695.281z" clip-rule="evenodd"/>
    <mask id="zobyi5g12a" width="11" height="7" x="7" y="9" maskUnits="userSpaceOnUse">
        <path fill="#fff" fill-rule="evenodd" d="M12 15.5c-.256 0-.512-.098-.707-.293l-4-4c-.39-.391-.39-1.023 0-1.414.391-.391 1.023-.391 1.414 0l3.305 3.305 3.293-3.18c.4-.383 1.03-.372 1.414.025.384.397.373 1.031-.024 1.414l-4 3.862c-.195.188-.445.281-.695.281z" clip-rule="evenodd"/>
    </mask>
    <g mask="url(#zobyi5g12a)">
        <path fill="#DA4816" d="M0 0H24V24H0z"/>
    </g>
</svg>
