<svg width="20" height="20" viewBox="0 0 20 20" fill="none" xmlns="http://www.w3.org/2000/svg">
<path d="M16.6641 9.66663C16.6641 8.00977 15.3209 6.66663 13.6641 6.66663H9.66406C8.00721 6.66663 6.66406 8.00977 6.66406 9.66663V13.6666C6.66406 15.3235 8.00721 16.6666 9.66406 16.6666H13.6641C15.3209 16.6666 16.6641 15.3235 16.6641 13.6666V9.66663Z" stroke="#505050" stroke-width="1.2"/>
<path d="M13.3281 6.66665V6.33331C13.3281 4.67646 11.985 3.33331 10.3281 3.33331H6.32813C4.67127 3.33331 3.32813 4.67646 3.32813 6.33331V10.3333C3.32813 11.9902 4.67127 13.3333 6.32812 13.3333H6.66146" stroke="#505050" stroke-width="1.2"/>
</svg>
