<svg width="220" height="220" viewBox="0 0 221 220" fill="none" xmlns="http://www.w3.org/2000/svg">
<circle cx="110.5" cy="110" r="110" fill="white"/>
<circle cx="111" cy="110" r="100" fill="#E3FFDC"/>
<circle cx="111" cy="110" r="34" fill="white"/>
<path d="M111 76C92.3 76 77 91.3 77 110C77 128.7 92.3 144 111 144C129.7 144 145 128.7 145 110C145 91.3 129.7 76 111 76ZM104.2 129.04L87.2 112.04L91.994 107.246L104.2 119.418L128 95.89L130.04 97.93L133.1 100.99L104.2 129.04Z" fill="#76BB63"/>
</svg>

