<svg width="24" height="24" viewBox="0 0 24 24" fill="none" xmlns="http://www.w3.org/2000/svg">
<path d="M17 14L12.7071 18.2929C12.3166 18.6834 11.6834 18.6834 11.2929 18.2929L7 14" stroke="currentColor" stroke-width="1.5" stroke-linecap="round"/>
<path d="M12 6L12 18" stroke="currentColor" stroke-width="1.5" stroke-linecap="round"/>
</svg>
