<svg xmlns="http://www.w3.org/2000/svg" width="25" height="24" fill="none" viewBox="0 0 25 24">
    <path fill="currentColor" fill-rule="evenodd" d="M11 17c-.256 0-.512-.098-.707-.293-.391-.391-.391-1.023 0-1.414l3.305-3.305-3.18-3.293c-.383-.398-.372-1.031.025-1.414.398-.383 1.031-.372 1.414.024l3.862 4c.379.393.374 1.016-.012 1.402l-4 4c-.195.195-.451.293-.707.293z" clip-rule="evenodd"/>
    <mask id="qe1g7pdpaa" width="7" height="10" x="9" y="7" maskUnits="userSpaceOnUse">
        <path fill="currentColor" fill-rule="evenodd" d="M11 17c-.256 0-.512-.098-.707-.293-.391-.391-.391-1.023 0-1.414l3.305-3.305-3.18-3.293c-.383-.398-.372-1.031.025-1.414.398-.383 1.031-.372 1.414.024l3.862 4c.379.393.374 1.016-.012 1.402l-4 4c-.195.195-.451.293-.707.293z" clip-rule="evenodd"/>
    </mask>
    <g mask="url(#qe1g7pdpaa)">
        <path fill="currentColor" d="M0.5 0H24.5V24H0.5z"/>
    </g>
</svg>
