<svg width="24" height="24" viewBox="0 0 24 24" fill="none" xmlns="http://www.w3.org/2000/svg">
<path d="M3.5 8C3.5 6.34315 4.84315 5 6.5 5H17.5C19.1569 5 20.5 6.34315 20.5 8V15C20.5 16.6569 19.1569 18 17.5 18H6.96093C6.25083 18 5.56374 18.2519 5.0219 18.7109L4.32317 19.3027C3.99826 19.5779 3.5 19.347 3.5 18.9212V8Z" stroke="currentColor" stroke-width="1.5"/>
<path d="M7.5 9H14.5" stroke="currentColor" stroke-width="1.5" stroke-linecap="round"/>
<path d="M7.5 13H11.5" stroke="currentColor" stroke-width="1.5" stroke-linecap="round"/>
</svg>
