<svg width="24" height="24" viewBox="0 0 24 24" fill="none" xmlns="http://www.w3.org/2000/svg">
<path d="M3.66372 16.8017C3.57005 16.8955 3.51744 17.0226 3.51744 17.1551V19.9826C3.51744 20.2587 3.74129 20.4826 4.01744 20.4826H6.8446C6.97728 20.4826 7.10453 20.4298 7.19831 20.336L17.1227 10.4026C17.3178 10.2073 17.3178 9.89082 17.1226 9.69562L14.2953 6.86832C14.1 6.673 13.7832 6.67307 13.588 6.86848L3.66372 16.8017ZM21.6444 17.6408C21.8406 17.8359 21.8411 18.1532 21.6454 18.3489L18.3479 21.6464C18.1526 21.8417 17.8361 21.8417 17.6408 21.6464L13.4469 17.4525C13.2516 17.2573 13.2516 16.9407 13.4469 16.7454L14.408 15.7843C14.6033 15.589 14.9198 15.589 15.1151 15.7843L15.3498 16.019C15.5453 16.2145 15.8625 16.2142 16.0576 16.0182L17.6785 14.3908C17.8736 14.1949 18.1908 14.1945 18.3863 14.3901L19.0119 15.0157C19.2091 15.2129 19.2069 15.5332 19.007 15.7277L18.3685 16.3486C18.1645 16.547 18.167 16.8754 18.374 17.0707L18.6426 17.3241C18.8384 17.5088 19.1452 17.5054 19.3368 17.3165L19.9792 16.6831C20.1745 16.4906 20.4884 16.4913 20.6828 16.6846L21.6444 17.6408ZM7.27237 10.5534C7.07683 10.7442 6.76441 10.7427 6.5707 10.5501L2.35559 6.35921C2.15937 6.16411 2.15891 5.84674 2.35457 5.65108L5.6511 2.35456C5.84675 2.1589 6.16411 2.15935 6.35921 2.35556L7.31362 3.3154C7.50766 3.51054 7.50754 3.8258 7.31334 4.02079L5.69026 5.65044C5.49502 5.84647 5.49609 6.16378 5.69264 6.35849L5.98998 6.65305C6.18606 6.8473 6.50247 6.84592 6.69685 6.64996L8.30998 5.02372C8.505 4.8271 8.82269 4.82646 9.01851 5.02228L9.64708 5.65085C9.84283 5.8466 9.84227 6.16415 9.64583 6.3592L9.01958 6.98104C8.82314 7.1761 8.82258 7.49364 9.01833 7.68939L9.24805 7.91912C9.44504 8.1161 9.44305 8.43608 9.24363 8.6306L7.27237 10.5534ZM20.2092 7.28746C20.5768 6.91989 20.5768 6.34496 20.2092 5.95853L18.0038 3.79076C17.655 3.42319 17.0424 3.42319 16.6748 3.79076L15.2961 5.162C15.0999 5.35711 15.0995 5.67443 15.2951 5.87007L18.1186 8.69353C18.315 8.88991 18.6338 8.88862 18.8286 8.69066L20.2092 7.28746Z" fill="currentColor"/>
</svg>
