<svg width="24" height="24" viewBox="0 0 24 24" fill="none" xmlns="http://www.w3.org/2000/svg">
<path d="M11.2923 19.2912C11.683 19.6825 12.317 19.6825 12.7077 19.2912L14.0487 17.948C14.2365 17.7599 14.4914 17.6543 14.7572 17.6545L16.6552 17.656C17.2081 17.6565 17.6565 17.2081 17.656 16.6552L17.6545 14.7572C17.6543 14.4914 17.7599 14.2365 17.948 14.0487L19.2912 12.7077C19.6825 12.317 19.6825 11.683 19.2912 11.2923L17.948 9.95131C17.7599 9.76352 17.6543 9.50859 17.6545 9.24281L17.656 7.34478C17.6565 6.79186 17.2081 6.34351 16.6552 6.34396L14.7572 6.34552C14.4914 6.34573 14.2365 6.24014 14.0487 6.05205L12.7077 4.70884C12.317 4.31755 11.683 4.31755 11.2923 4.70884L9.95131 6.05205C9.76353 6.24014 9.50859 6.34573 9.24281 6.34552L7.34478 6.34396C6.79186 6.34351 6.34351 6.79186 6.34397 7.34478L6.34552 9.2428C6.34574 9.50859 6.24014 9.76352 6.05205 9.95131L4.70884 11.2923C4.31755 11.683 4.31755 12.317 4.70884 12.7077L6.05205 14.0487C6.24014 14.2365 6.34574 14.4914 6.34552 14.7572L6.34397 16.6552C6.34351 17.2081 6.79186 17.6565 7.34478 17.656L9.24281 17.6545C9.50859 17.6543 9.76352 17.7599 9.95131 17.948L11.2923 19.2912Z" stroke="currentColor" stroke-width="1.5"/>
<path d="M10 10.5H14" stroke="currentColor" stroke-width="1.5" stroke-linecap="round"/>
<path d="M12 13.5H14" stroke="currentColor" stroke-width="1.5" stroke-linecap="round"/>
</svg>
