<svg width="24" height="24" viewBox="0 0 24 24" fill="none" xmlns="http://www.w3.org/2000/svg">
<path d="M3 6C3 4.89543 3.89543 4 5 4H11C12.1046 4 13 4.89543 13 6V11C13 12.1046 12.1046 13 11 13H8.02053C8.00698 13 7.99358 13.0028 7.98113 13.0081L4.63939 14.4403C4.57341 14.4685 4.5 14.4201 4.5 14.3483V13.0075C4.5 13.0033 4.49666 13 4.49254 13V13C3.66823 13 3 12.3318 3 11.5075V6Z" stroke="currentColor" stroke-width="1.5"/>
<path d="M11 13V16C11 17.1046 11.8954 18 13 18H17.4713C17.4901 18 17.5084 18.0053 17.5243 18.0152L19.347 19.1544C19.4136 19.196 19.5 19.1481 19.5 19.0696V18.0075C19.5 18.0033 19.5033 18 19.5075 18V18C20.3318 18 21 17.3318 21 16.5075V11C21 9.89543 20.1046 9 19 9H12.5" stroke="currentColor" stroke-width="1.5"/>
<path d="M14.5 15.5H19" stroke="currentColor" stroke-width="1.5"/>
<path fill-rule="evenodd" clip-rule="evenodd" d="M16.0607 12L17.1213 13.0607L16.0607 14.1213L15 13.0607L16.0607 12Z" fill="currentColor"/>
<path fill-rule="evenodd" clip-rule="evenodd" d="M18.0605 12L19.1212 13.0607L18.0605 14.1213L16.9999 13.0607L18.0605 12Z" fill="currentColor"/>
<path d="M7.04263 10.5H6L7.35424 6.5H8.64576L10 10.5H8.95737L8.0147 7.50781H7.98334L7.04263 10.5ZM6.90348 8.92578H9.0828V9.66016H6.90348V8.92578Z" fill="currentColor"/>
</svg>
