<svg width="24" height="24" viewBox="0 0 24 24" fill="none" xmlns="http://www.w3.org/2000/svg">
<path d="M11.9999 16V18C11.9999 18.412 11.5295 18.6472 11.1999 18.4L10 17.5" stroke="currentColor" stroke-width="1.5" stroke-linecap="round"/>
<path d="M8.5 15.5H5.5C4.67157 15.5 4 14.8284 4 14V10C4 9.17157 4.67157 8.5 5.5 8.5H8.08579C8.351 8.5 8.60536 8.39464 8.79289 8.20711L11.1464 5.85355C11.4614 5.53857 12 5.76165 12 6.20711V12" stroke="currentColor" stroke-width="1.5"/>
<path d="M4 20L19 5" stroke="currentColor" stroke-width="1.5" stroke-linecap="round"/>
<path d="M14.0024 13.4914V14.5415C14.0024 14.8177 14.2278 15.0458 14.5002 15C15.1112 14.8972 15.6799 14.6068 16.1238 14.1629C16.6864 13.6003 17.0024 12.8372 17.0024 12.0415C17.0024 11.5989 16.9046 11.1664 16.721 10.7729L14.0024 13.4914Z" fill="currentColor"/>
</svg>
