[
  {
    "name": "Nabil Mosharraf Hossain",
    "role": "Founder",
    "description": "Senior Software Engineer at SEEK, Malaysia.\n A visionary and dedicated person with 8+ years of experience in mobile app development with a passion for Leadership and Data Science.",
    "socialLinks": {
      "linkedIn": "https://www.linkedin.com/in/nabil6391/ ",
      "twitter": "https://twitter.com/NMosharraf "
    },
    "image": "/images/team-members/Nabil-Mosharraf-Hossain.png"
  },
  {
    "name": "Yemin Sajid",
    "role": "Co-Founder, COO",
    "description": "Co-Founder and Chief Operating Officer @ Greentech Apps Foundation.\n Passionate about team building, strategy and process. Has 6+ years of experience in web development, team building.",
    "socialLinks": {
      "linkedIn": "https://www.linkedin.com/in/ysajid0/",
      "twitter": "https://x.com/ysajid0"
    },
    "image": "/images/team-members/Yemin-Sajid.png"
  },
  {
    "name": "Dr Riasat Islam",
    "role": "Trustee",
    "description": "Educator and Researcher with a track record in leveraging technology for social good",
    "socialLinks": {
      "linkedIn": "https://www.linkedin.com/in/riasatislam/",
      "twitter": "https://twitter.com/riasat_islam "
    },
    "image": "/images/team-members/Riasat-Siam-Islam.png"
  },
  {
    "name": "Imran Ali",
    "role": "Trustee",
    "description": "Lead Business Analyst, UK.\n A technology industry professional with over 10 years providing consultancy and business analysis to multiple blue chip organizations.",
    "socialLinks": {
      "linkedIn": "https://www.linkedin.com/in/imranaliba/",
      "twitter": ""
    },
    "image": "/images/team-members/Imran-Ali.png"
  },
  {
    "name": "Abu H M Ismail",
    "role": "Trustee",
    "description": "Senior Spectrum Technical Analyst, UK.\n Communications Engineer with 11 years of experience in the field of wireless communications and regulation. UK representative in ITU, World Radio Conference and European conferences.",
    "socialLinks": {
      "linkedIn": "https://www.linkedin.com/in/abu-h-m-ismail-79796736/",
      "twitter": ""
    },
    "image": "/images/team-members/Abu-H-M-Ismail.png"
  },
  {
    "name": "Priota Islam",
    "role": "Trustee",
    "description": "Doctoral researcher specialising in Neutrophil Biology at the University of Cambridge, UK.A dedicated biological scientist with a decade-plus tenure in research, and concurrently building a jewellery brand.",
    "socialLinks": {
      "linkedIn": "",
      "twitter": ""
    },
    "image": "/images/team-members/Priota-Islam.png"
  }
]
