[
  {
    "reviewer": "Gabriella Johnson",
    "stars": 5,
    "reviewText": "Found the Al Quran app as a Christian last summer then converted to Islam alhamdullilah!!",
    "avatar": ""
  },
  {
    "reviewer": "Mohammad",
    "stars": 5,
    "reviewText": "I don’t know whether you will be reading this or not but I got to share this that, tomorrow I will become a “QURAN HAFIZ”, إِنْ شَاءَ ٱللَّٰهُ. The reason I am writing this here is that I memorized all the 30 juz from this app in approx. 7 to 8 month ٱلْحَمْدُ لِلّٰهِ.",
    "avatar": ""
  },
  {
    "reviewer": "Mariz Sintaha",
    "stars": 5,
    "reviewText": "This is the best app I have found to read/understand Quran (after trying dozen other). I feel even embarrassed that I am using this app for free. It deserves to be paid app. I am contributing a little to show my respect to the team behind it.",
    "avatar": ""
  },
  {
    "reviewer": "Hamza Hofmann",
    "stars": 5,
    "reviewText": "Asalam Alaikum dear brothers and sisters. And thank you very much for this excellent App, which is rich in offers and possibilities to learn, especially for a late revert, age 63. Sincerely from Germany",
    "avatar": ""
  },
  {
    "reviewer": "Mohd Yasir",
    "stars": 5,
    "reviewText": "All apps of GTAF are amazing ❤️, it helped me a lot to understand my Deen and work on my character. This app is very good with all the categories and chapters of different HADITH, MAY ALLAH REWARD YOU FOR YOUR SADAQAH JARIYA, Jazak Allah khair ❤️✨.",
    "avatar": ""
  }
]
